{
  "Users": [
    {
      "id": 1,
      "username": "monica",
      "password": "monicapreethi",
      "emailid": "monica@gmail.com",
      "phoneno": 9666694181,
      "bankaccountnumber": 0,
      "usertype": "admin",
      "balance": 0,
      "isactive": false,
      "address": "nellore"
    },
    {
      "bankaccountnumber": "101",
      "balance": 29000,
      "usertype": "admin",
      "id": 2,
      "username": "monica",
      "password": "monicapreethi",
      "emailid": "monica@gmail.com",
      "phoneno": "9666694181",
      "isactive": false
    },
    {
      "bankaccountnumber": "102",
      "balance": 50000,
      "usertype": "user",
      "id": 3,
      "username": "sujana",
      "password": "sujana",
      "emailid": "sujana.j@gmail.com",
      "phoneno": "8919012559",
      "isactive": false
    },
    {
      "bankaccountnumber": "104",
      "balance": 44100,
      "usertype": "user",
      "id": 4,
      "username": "preethi",
      "password": "preethi",
      "emailid": "preethi.j@gmail.com",
      "phoneno": "8901345225"
    },
    {
      "bankaccountnumber": "105",
      "balance": 21000,
      "usertype": "user",
      "id": 5,
      "username": "hardinscott",
      "password": "hardinscott",
      "emailid": "hardinscottrocks@gmail.com",
      "phoneno": "78901234785"
    },
    {
      "bankaccountnumber": "112",
      "balance": 9000,
      "usertype": "user",
      "id": 6,
      "username": "bhavani",
      "password": "bhavani",
      "emailid": "bhavani.t@gmail.com",
      "phoneno": "7890253612",
      "isactive": false
    },
    {
      "bankaccountnumber": "118",
      "balance": 48900,
      "usertype": "user",
      "id": 7,
      "username": "sandesh",
      "password": "sandesh",
      "emailid": "sandesh.a@gmail.com",
      "phoneno": "7882842943",
      "isactive": false
    },
    {
      "bankaccountnumber": "200",
      "balance": 0,
      "usertype": "user",
      "id": 8,
      "username": "sridhar",
      "password": "sridhar",
      "emailid": "sridhar@gmail.com",
      "phoneno": "8974989239",
      "isactive": false
    }
  ],
  "Transactions": [
    {
      "fromaccountnumber": "102",
      "toaccountnumber": "102",
      "transactionamount": 1000,
      "transactiondate": "2021-01-26T17:54:30.237Z",
      "balanceondate": 52000,
      "remarks": "Transaction Successfull",
      "transactiontype": "credit",
      "id": 1
    },
    {
      "fromaccountnumber": "101",
      "toaccountnumber": "105",
      "transactionamount": 1000,
      "transactiondate": "2021-01-27T04:37:42.620Z",
      "balanceondate": 28000,
      "remarks": "Transaction Successfull",
      "transactiontype": "debit",
      "id": 2
    },
    {
      "fromaccountnumber": "112",
      "toaccountnumber": "104",
      "transactionamount": 1000,
      "transactiondate": "2021-01-27T04:43:35.029Z",
      "balanceondate": 8000,
      "remarks": "Transaction Successfull",
      "transactiontype": "debit",
      "id": 3
    },
    {
      "fromaccountnumber": "102",
      "toaccountnumber": "104",
      "transactionamount": 1000,
      "transactiondate": "2021-01-27T05:45:46.528Z",
      "balanceondate": 49000,
      "remarks": "Transaction Successfull",
      "transactiontype": "debit",
      "id": 4
    },
    {
      "fromaccountnumber": "118",
      "toaccountnumber": "104",
      "transactionamount": 1000,
      "transactiondate": "2021-01-27T08:38:41.498Z",
      "balanceondate": 48000,
      "remarks": "Transaction Successfull",
      "transactiontype": "debit",
      "id": 5
    },
    {
      "fromaccountnumber": "200",
      "toaccountnumber": "104",
      "transactionamount": 1000,
      "transactiondate": "2021-01-27T16:38:57.955Z",
      "balanceondate": -1000,
      "remarks": "Transaction Successfull",
      "transactiontype": "debit",
      "id": 6
    },
    {
      "fromaccountnumber": "118",
      "toaccountnumber": "104",
      "transactionamount": 100,
      "transactiondate": "2021-01-28T04:11:19.789Z",
      "balanceondate": 48800,
      "remarks": "Transaction Successfull",
      "transactiontype": "debit",
      "id": 7
    }
  ]
}